module broker

go 1.18

require (
	github.com/go-chi/chi/v5 v5.0.8
	github.com/go-chi/cors v1.2.1
	github.com/rabbitmq/amqp091-go v1.7.0
	go.etcd.io/etcd/client/v3 v3.5.7
	google.golang.org/grpc v1.53.0
	google.golang.org/protobuf v1.28.1
)

require (
	github.com/coreos/go-semver v0.3.1 // indirect
	github.com/coreos/go-systemd/v22 v22.5.0 // indirect
	github.com/gogo/protobuf v1.3.2 // indirect
	github.com/golang/protobuf v1.5.2 // indirect
	go.etcd.io/etcd/api/v3 v3.5.7 // indirect
	go.etcd.io/etcd/client/pkg/v3 v3.5.7 // indirect
	go.uber.org/atomic v1.10.0 // indirect
	go.uber.org/multierr v1.9.0 // indirect
	go.uber.org/zap v1.24.0 // indirect
	golang.org/x/net v0.7.0 // indirect
	golang.org/x/sys v0.5.0 // indirect
	golang.org/x/text v0.7.0 // indirect
	google.golang.org/genproto v0.0.0-20230301171018-9ab4bdc49ad5 // indirect
)
