module mail-service

go 1.18

require (
	github.com/go-chi/chi/v5 v5.0.7
	github.com/go-chi/cors v1.2.0
	github.com/vanng822/go-premailer v1.20.1
	github.com/xhit/go-simple-mail/v2 v2.11.0
	go.etcd.io/etcd/client/v3 v3.5.2
)

require (
	github.com/PuerkitoBio/goquery v1.8.0 // indirect
	github.com/andybalholm/cascadia v1.3.1 // indirect
	github.com/coreos/go-semver v0.3.0 // indirect
	github.com/coreos/go-systemd/v22 v22.3.2 // indirect
	github.com/davecgh/go-spew v1.1.1 // indirect
	github.com/go-test/deep v1.0.8 // indirect
	github.com/gogo/protobuf v1.3.2 // indirect
	github.com/golang/protobuf v1.5.2 // indirect
	github.com/gorilla/css v1.0.0 // indirect
	github.com/stretchr/testify v1.7.0 // indirect
	github.com/toorop/go-dkim v0.0.0-20201103131630-e1cd1a0a5208 // indirect
	github.com/vanng822/css v1.0.1 // indirect
	go.etcd.io/etcd/api/v3 v3.5.2 // indirect
	go.etcd.io/etcd/client/pkg/v3 v3.5.2 // indirect
	go.uber.org/atomic v1.9.0 // indirect
	go.uber.org/multierr v1.8.0 // indirect
	go.uber.org/zap v1.21.0 // indirect
	golang.org/x/net v0.0.0-20220325170049-de3da57026de // indirect
	golang.org/x/sys v0.0.0-20220328115105-d36c6a25d886 // indirect
	golang.org/x/text v0.3.7 // indirect
	google.golang.org/genproto v0.0.0-20220328150716-24ca77f39d1f // indirect
	google.golang.org/grpc v1.45.0 // indirect
	google.golang.org/protobuf v1.28.0 // indirect
)
