module authentication

go 1.18

require (
	github.com/go-chi/chi/v5 v5.0.8
	github.com/go-chi/cors v1.2.1
	github.com/jackc/pgconn v1.14.0
	github.com/jackc/pgx/v4 v4.18.1
	go.etcd.io/etcd/client/v3 v3.5.2
	golang.org/x/crypto v0.6.0
)

require (
	github.com/coreos/go-semver v0.3.0 // indirect
	github.com/coreos/go-systemd/v22 v22.3.2 // indirect
	github.com/gogo/protobuf v1.3.2 // indirect
	github.com/golang/protobuf v1.5.2 // indirect
	github.com/jackc/chunkreader/v2 v2.0.1 // indirect
	github.com/jackc/pgio v1.0.0 // indirect
	github.com/jackc/pgpassfile v1.0.0 // indirect
	github.com/jackc/pgproto3/v2 v2.3.2 // indirect
	github.com/jackc/pgservicefile v0.0.0-20221227161230-091c0ba34f0a // indirect
	github.com/jackc/pgtype v1.14.0 // indirect
	go.etcd.io/etcd/api/v3 v3.5.2 // indirect
	go.etcd.io/etcd/client/pkg/v3 v3.5.2 // indirect
	go.uber.org/atomic v1.9.0 // indirect
	go.uber.org/multierr v1.8.0 // indirect
	go.uber.org/zap v1.21.0 // indirect
	golang.org/x/net v0.6.0 // indirect
	golang.org/x/sys v0.5.0 // indirect
	golang.org/x/text v0.7.0 // indirect
	google.golang.org/genproto v0.0.0-20220328150716-24ca77f39d1f // indirect
	google.golang.org/grpc v1.45.0 // indirect
	google.golang.org/protobuf v1.28.0 // indirect
)
