module log-service

go 1.18

require (
	github.com/alexedwards/scs/v2 v2.5.0
	github.com/go-chi/chi/v5 v5.0.8
	github.com/go-chi/cors v1.2.1
	go.etcd.io/etcd/client/v3 v3.5.7
	go.mongodb.org/mongo-driver v1.11.2
	google.golang.org/grpc v1.53.0
	google.golang.org/protobuf v1.28.1
)

require (
	github.com/coreos/go-semver v0.3.1 // indirect
	github.com/coreos/go-systemd/v22 v22.5.0 // indirect
	github.com/go-stack/stack v1.8.1 // indirect
	github.com/gogo/protobuf v1.3.2 // indirect
	github.com/golang/protobuf v1.5.2 // indirect
	github.com/golang/snappy v0.0.4 // indirect
	github.com/klauspost/compress v1.16.0 // indirect
	github.com/montanaflynn/stats v0.7.0 // indirect
	github.com/pkg/errors v0.9.1 // indirect
	github.com/xdg-go/pbkdf2 v1.0.0 // indirect
	github.com/xdg-go/scram v1.1.2 // indirect
	github.com/xdg-go/stringprep v1.0.4 // indirect
	github.com/youmark/pkcs8 v0.0.0-20201027041543-1326539a0a0a // indirect
	go.etcd.io/etcd/api/v3 v3.5.7 // indirect
	go.etcd.io/etcd/client/pkg/v3 v3.5.7 // indirect
	go.uber.org/atomic v1.10.0 // indirect
	go.uber.org/multierr v1.9.0 // indirect
	go.uber.org/zap v1.24.0 // indirect
	golang.org/x/crypto v0.6.0 // indirect
	golang.org/x/net v0.7.0 // indirect
	golang.org/x/sync v0.1.0 // indirect
	golang.org/x/sys v0.5.0 // indirect
	golang.org/x/text v0.7.0 // indirect
	google.golang.org/genproto v0.0.0-20230301171018-9ab4bdc49ad5 // indirect
)
